@startuml DF
(dim_date.row_num) --> (Date)
(Date) --> (JourSemaine)
(Date) --> (JourAnnee)
(Date) --> (Semaine)
(Date) --> (Mois)
(Date) --> (Annee)
(Mois) --> (Trimestre)
(Trimestre) --> (Semestre)

(dim_people.row_num) --> (CustomerNumber)
(dim_people.row_num) --> (DateOfBirth)
(DateOfBirth) --> (Age)
(dim_people.row_num) --> (Gender)

(dim_product.row_num) --> (Product)
(dim_product.row_num) --> (Color)
(dim_product.row_num) --> (Price)
(Price) --> (PriceSegment)
(dim_product.row_num) --> (Size)
(Size) --> (SizeSegment)

(dim_location.row_num) --> (DepartementCode)
(dim_location.row_num) --> (DepartementLabel)
(DepartementCode) <--> (DepartementLabel)
(DepartementCode) --> (Population)
(DepartementLabel) --> (Population)
(Population) --> (PopulationSegment)
@enduml
