﻿"day_of_week"|"nb_calls_dow_by_nb_of_dates"|"nb_calls_against_dow"|"nb_dates_dow"
1|10.4905660377358491|556|53
2|13.1346153846153846|683|52
3|15.1153846153846154|786|52
4|3.0000000000000000|144|48
5|17.0576923076923077|887|52
6|16.3076923076923077|848|52
7|17.9423076923076923|933|52
