@startuml Etoile_Marketing
class Vente{
    TickerNumber: Entier
}
class Temps{
    Date: TimeStamp {Key}
    JourSemaine: integer
    Mois: integer
    Trimestre: integer
    Semestre: integer
    Annee: integer
}
class Lieu{
    Magasin: Chaîne {Key}
    CodeDepartement: integer
    OrgaRayonnage: Chaîne
}

Vente --> Temps
Vente --> Lieu

@enduml

@startuml Etoile_Marketing_DF
(Date) -> (JourSemaine)
(Date) -> (Mois)
(Mois) -> (Trimestre)
(Trimestre) -> (Semestre)
(Date) -> (Annee)

(Magasin) -> (CodeDepartement)
(Magasin) -> (OrgaRayonnage)
@enduml